[gd_scene load_steps=10 format=2]

[ext_resource path="res://entity/EntitySprite.gd" type="Script" id=1]

[sub_resource type="Animation" id=1]

resource_name = "stand_down"
length = 1.0
loop = false
step = 0.1
tracks/0/type = "value"
tracks/0/path = NodePath(".:frame")
tracks/0/interp = 1
tracks/0/loop_wrap = true
tracks/0/imported = false
tracks/0/enabled = true
tracks/0/keys = {
"times": PoolRealArray( 0 ),
"transitions": PoolRealArray( 1 ),
"update": 1,
"values": [ 130 ]
}

[sub_resource type="Animation" id=2]

resource_name = "stand_left"
length = 1.0
loop = false
step = 0.1
tracks/0/type = "value"
tracks/0/path = NodePath(".:frame")
tracks/0/interp = 1
tracks/0/loop_wrap = true
tracks/0/imported = false
tracks/0/enabled = true
tracks/0/keys = {
"times": PoolRealArray( 0 ),
"transitions": PoolRealArray( 1 ),
"update": 1,
"values": [ 117 ]
}

[sub_resource type="Animation" id=3]

resource_name = "stand_right"
length = 1.0
loop = false
step = 0.1
tracks/0/type = "value"
tracks/0/path = NodePath(".:frame")
tracks/0/interp = 1
tracks/0/loop_wrap = true
tracks/0/imported = false
tracks/0/enabled = true
tracks/0/keys = {
"times": PoolRealArray( 0 ),
"transitions": PoolRealArray( 1 ),
"update": 1,
"values": [ 143 ]
}

[sub_resource type="Animation" id=4]

resource_name = "stand_up"
length = 1.0
loop = false
step = 0.1
tracks/0/type = "value"
tracks/0/path = NodePath(".:frame")
tracks/0/interp = 1
tracks/0/loop_wrap = true
tracks/0/imported = false
tracks/0/enabled = true
tracks/0/keys = {
"times": PoolRealArray( 0 ),
"transitions": PoolRealArray( 1 ),
"update": 1,
"values": [ 104 ]
}

[sub_resource type="Animation" id=5]

length = 1.6
loop = true
step = 0.2
tracks/0/type = "value"
tracks/0/path = NodePath(".:frame")
tracks/0/interp = 1
tracks/0/loop_wrap = true
tracks/0/imported = false
tracks/0/enabled = true
tracks/0/keys = {
"times": PoolRealArray( 0, 1.6 ),
"transitions": PoolRealArray( 1, 1 ),
"update": 0,
"values": [ 131, 139 ]
}

[sub_resource type="Animation" id=6]

length = 1.6
loop = true
step = 0.2
tracks/0/type = "value"
tracks/0/path = NodePath(".:frame")
tracks/0/interp = 1
tracks/0/loop_wrap = true
tracks/0/imported = false
tracks/0/enabled = true
tracks/0/keys = {
"times": PoolRealArray( 0, 1.6 ),
"transitions": PoolRealArray( 1, 1 ),
"update": 0,
"values": [ 118, 126 ]
}

[sub_resource type="Animation" id=7]

length = 1.6
loop = true
step = 0.2
tracks/0/type = "value"
tracks/0/path = NodePath(".:frame")
tracks/0/interp = 1
tracks/0/loop_wrap = true
tracks/0/imported = false
tracks/0/enabled = true
tracks/0/keys = {
"times": PoolRealArray( 0, 1.6 ),
"transitions": PoolRealArray( 1, 1 ),
"update": 0,
"values": [ 144, 152 ]
}

[sub_resource type="Animation" id=8]

length = 1.6
loop = true
step = 0.2
tracks/0/type = "value"
tracks/0/path = NodePath(".:frame")
tracks/0/interp = 1
tracks/0/loop_wrap = true
tracks/0/imported = false
tracks/0/enabled = true
tracks/0/keys = {
"times": PoolRealArray( 0, 1.6 ),
"transitions": PoolRealArray( 1, 1 ),
"update": 0,
"values": [ 105, 113 ]
}

[node name="EntitySprite" type="Sprite" index="0"]

vframes = 21
hframes = 13
frame = 130
script = ExtResource( 1 )
_sections_unfolded = [ "Animation", "Offset", "Transform" ]

[node name="AnimationPlayer" type="AnimationPlayer" parent="." index="0"]

playback_process_mode = 1
playback_default_blend_time = 0.0
root_node = NodePath("..")
anims/stand_down = SubResource( 1 )
anims/stand_left = SubResource( 2 )
anims/stand_right = SubResource( 3 )
anims/stand_up = SubResource( 4 )
anims/walk_down = SubResource( 5 )
anims/walk_left = SubResource( 6 )
anims/walk_right = SubResource( 7 )
anims/walk_up = SubResource( 8 )
playback/active = true
playback/speed = 1.0
blend_times = [  ]
autoplay = ""
_sections_unfolded = [ "Playback Options", "playback" ]


