[gd_scene load_steps=2 format=2]

[ext_resource path="res://main_menu/MainMenu.gd" type="Script" id=1]

[node name="MainMenu" type="Node2D"]

script = ExtResource( 1 )

[node name="PlayButton" type="Button" parent="." index="0"]

anchor_left = 0.5
anchor_top = 0.5
anchor_right = 0.5
anchor_bottom = 0.5
margin_left = 418.0
margin_top = 295.0
margin_right = 482.0
margin_bottom = 315.0
rect_pivot_offset = Vector2( 0, 0 )
mouse_filter = 0
size_flags_horizontal = 1
size_flags_vertical = 1
toggle_mode = false
enabled_focus_mode = 2
shortcut = null
group = null
text = "Play"
flat = false
align = 1


